/Users/rohitmokashi/Desktop/Rohit/weather-app/src/test/java/io/innovect/springboot/forecast/WeatherForecastTest.java
/Users/rohitmokashi/Desktop/Rohit/weather-app/src/test/java/io/innovect/springboot/forecast/SpringIntegrationTest.java
/Users/rohitmokashi/Desktop/Rohit/weather-app/src/test/java/io/innovect/springboot/forecast/ForecastControllerStepdefs.java
